{
    "name": "demo_if_stajoana_stajoana",
    "description": "Layout para arquivos IF do Hospital SANTAJOANA",
    "fieldDelimiter": ";",
    "skipLines": 1,
    "version": 0,
    "unit": "stajoana_stajoana",
	"schema": "if",
    "keyFieldAlt": "0,1,2,3,4,5",
    "headerRegex": "(?i)Unid;Cod\\.EMS;.?egistro;Dt\\.Atend\\.\\(Fixa\\);Dt\\.Admis\\.\\(Variavel\\);Convenio EMS;Convenio;Exame;Cod\\.AMB;Pendente;Data Faturamento;Nota Fiscal;Vl\\.Total\\.Exame;Vl\\.Total\\.Exame\\.Rec;Vl\\.Material;Vl\\.Medicamento;Vl\\.Filme;Vl\\.Taxas;Vl\\.Exame;Vl\\.Exame\\/Vl\\.CH;Valor;CH;Amost\\.;DescricaoItem;Nome;Carteira;Reg\\.Hospital;Num\\.Conta;Est\\.;Nro\\.Guia;CRM;Recepcao;Autorizacao;Guia p\\/exame;Divisao;Lote Nr\\.;Guia Tiss;Guia Princ;Reg Oper;Perc Desc;Fam\\.Com;Sub\\.Plano;Hora\\.Atend;Aten\\.Hosp;Ped\\.Pescricao;SenhaInternacao;CodMatriz;CodStatus;SeqExameOrigem;CodExameOrigem;ByPass;Idade;Data Nascimento;Sexo;CPF;SerNf;CodTuss;DataNF-e;NroNF-e;DtEmisRPS;SerRPS;NroRPS;NroPedido;NroPreLote;Cod\\.AMB\\(De\\/Para\\);NomeMedico-1;NomeMedico-2;CrmMmedico-2;CodEspMed-1;CodEspMed-2;NroCNES;NomeProfSolic;SiglaConselho;NroConselho;UfConselhoS;CodCbo;DtCaptura;UniOri;Ac\\/Pd;CidConv;UFConv;Ultimo Log;unidade-ori;EmpCod;CntLogCod;Sequencia Exame;CntLogCod Exame;CentroLogProd;idItemDasa;ItemCod;FaturaOri;CntLogLNFat;NotaAtdo;Modalidade;DescOrigem;Ordem Midia;Data Laudo;Data de Extracao\\n\\d+;.*?SANTAJOANA.*",
    "startRegex": "\\d+;.*;.*;.*;.*;SANTAJOANA.*",
    "nameRegex": ".*",
    "dateRefMode": "today",
    "replacements": [
        {
            "search": "(?i)^(?!\\d+).*",
            "replace": ""
        }
    ],
    "fields": {
        "0": {
            "type": "FieldString",
            "name": "unid"
        },
        "1": {
            "type": "FieldString",
            "name": "cod_ems"
        },
        "2": {
            "type": "FieldString",
            "name": "registro"
        },
        "3": {
            "type": "FieldString",
            "name": "data_atendimento"
        },
        "4": {
            "type": "FieldString",
            "name": "data_admissao"
        },
        "5": {
            "type": "FieldString",
            "name": "convenio_ems"
        },
        "6": {
            "type": "FieldString",
            "name": "convenio"
        },
        "7": {
            "type": "FieldString",
            "name": "exame"
        },
        "8": {
            "type": "FieldString",
            "name": "cod_amb"
        },
        "9": {
            "type": "FieldString",
            "name": "pendente"
        },
        "10": {
            "type": "FieldString",
            "name": "data_faturamento"
        },
        "11": {
            "type": "FieldString",
            "name": "nota_fiscal"
        },
        "12": {
			"replacements": [
				{
				"search": "\\.",
				"replace": ""
				}
			],
            "type": "FieldDecimal",
            "name": "valor_total_exame",
            "plane": true
        },
        "13": {
			"replacements": [
				{
				"search": "\\.",
				"replace": ""
				}
			],
            "type": "FieldDecimal",
            "name": "valor_total_exame_rec",
            "plane": true
        },
        "14": {
			"replacements": [
				{
				"search": "\\.",
				"replace": ""
				}
			],
            "type": "FieldDecimal",
            "name": "valor_material",
            "plane": true
        },
        "15": {
			"replacements": [
				{
				"search": "\\.",
				"replace": ""
				}
			],
            "type": "FieldDecimal",
            "name": "valor_medicamento",
            "plane": true
        },
        "16": {
			"replacements": [
				{
				"search": "\\.",
				"replace": ""
				}
			],
            "type": "FieldDecimal",
            "name": "valor_filme",
            "plane": true
        },
        "17": {
			"replacements": [
				{
				"search": "\\.",
				"replace": ""
				}
			],
            "type": "FieldDecimal",
            "name": "valor_taxas",
            "plane": true
        },
        "18": {
			"replacements": [
				{
				"search": "\\.",
				"replace": ""
				}
			],
            "type": "FieldDecimal",
            "name": "valor_exame",
            "plane": true
        },
        "19": {
			"replacements": [
				{
				"search": "\\.",
				"replace": ""
				}
			],
            "type": "FieldDecimal",
            "name": "valor_exame_valor_ch",
            "plane": true
        },
        "20": {
			"replacements": [
				{
				"search": "\\.",
				"replace": ""
				}
			],
            "type": "FieldDecimal",
            "name": "valor",
            "plane": true
        },
        "21": {
            "type": "FieldString",
            "name": "ch"
        },
        "22": {
            "type": "FieldString",
            "name": "amost"
        },
        "23": {
            "type": "FieldString",
            "name": "descricao_item"
        },
        "24": {
            "type": "FieldString",
            "name": "nome"
        },
        "25": {
            "type": "FieldString",
            "name": "carteira"
        },
        "26": {
            "type": "FieldString",
            "name": "reg_hospital"
        },
        "27": {
            "type": "FieldString",
            "name": "num_conta"
        },
        "28": {
            "type": "FieldString",
            "name": "est"
        },
        "29": {
            "type": "FieldString",
            "name": "nro_guia"
        },
        "30": {
            "type": "FieldString",
            "name": "crm"
        },
        "31": {
            "type": "FieldString",
            "name": "recepcao"
        },
        "32": {
            "type": "FieldString",
            "name": "autorizacao"
        },
        "33": {
            "type": "FieldString",
            "name": "guia_exame"
        },
        "34": {
            "type": "FieldString",
            "name": "divisao"
        },
        "35": {
            "type": "FieldString",
            "name": "lote_nr"
        },
        "36": {
            "type": "FieldString",
            "name": "guia_tiss"
        },
        "37": {
            "type": "FieldString",
            "name": "guia_princ"
        },
        "38": {
            "type": "FieldString",
            "name": "reg_oper"
        },
        "39": {
            "type": "FieldString",
            "name": "perc_desc"
        },
        "40": {
            "type": "FieldString",
            "name": "fam_com"
        },
        "41": {
            "type": "FieldString",
            "name": "sub_plano"
        },
        "42": {
            "type": "FieldString",
            "name": "hora_atend"
        },
        "43": {
            "type": "FieldString",
            "name": "atend_hosp"
        },
        "44": {
            "type": "FieldString",
            "name": "ped_prescricao"
        },
        "45": {
            "type": "FieldString",
            "name": "senha_internacao"
        },
        "46": {
            "type": "FieldString",
            "name": "cod_matriz"
        },
        "47": {
            "type": "FieldString",
            "name": "cod_status"
        },
        "48": {
            "type": "FieldString",
            "name": "seq_exam_origem"
        },
        "49": {
            "type": "FieldString",
            "name": "cod_exame_origem"
        },
        "50": {
            "type": "FieldString",
            "name": "by_pass"
        },
        "51": {
            "type": "FieldString",
            "name": "idade"
        },
        "52": {
            "type": "FieldString",
            "name": "data_nascimento"
        },
        "53": {
            "type": "FieldString",
            "name": "sexo"
        },
        "54": {
            "type": "FieldString",
            "name": "cpf"
        },
        "55": {
            "type": "FieldString",
            "name": "ser_nf"
        },
        "56": {
            "type": "FieldString",
            "name": "cod_tuss"
        },
        "57": {
            "type": "FieldString",
            "name": "data_nfe"
        },
        "58": {
            "type": "FieldString",
            "name": "nro_nfe"
        },
        "59": {
            "type": "FieldString",
            "name": "data_emis_rps"
        },
        "60": {
            "type": "FieldString",
            "name": "ser_rps"
        },
        "61": {
            "type": "FieldString",
            "name": "nro_rps"
        },
        "62": {
            "type": "FieldString",
            "name": "nro_pedido"
        },
        "63": {
            "type": "FieldString",
            "name": "nro_pre_lote"
        },
        "64": {
            "type": "FieldString",
            "name": "cod_amb_de_para"
        },
        "65": {
            "type": "FieldString",
            "name": "nome_medico_1"
        },
        "66": {
            "type": "FieldString",
            "name": "nome_medico_2"
        },
        "67": {
            "type": "FieldString",
            "name": "crm_medico_2"
        },
        "68": {
            "type": "FieldString",
            "name": "cod_esp_med_1"
        },
        "69": {
            "type": "FieldString",
            "name": "cod_esp_med_2"
        },
        "70": {
            "type": "FieldString",
            "name": "nro_cnes"
        },
        "71": {
            "type": "FieldString",
            "name": "nome_prof_solic"
        },
        "72": {
            "type": "FieldString",
            "name": "sigla_conselho"
        },
        "73": {
            "type": "FieldString",
            "name": "nro_conselho"
        },
        "74": {
            "type": "FieldString",
            "name": "uf_conselhos"
        },
        "75": {
            "type": "FieldString",
            "name": "cod_cbo"
        },
        "76": {
            "type": "FieldString",
            "name": "data_captura"
        },
        "77": {
            "type": "FieldString",
            "name": "uni_ori"
        },
        "78": {
            "type": "FieldString",
            "name": "ac_pd"
        },
        "79": {
            "type": "FieldString",
            "name": "cid_conv"
        },
        "80": {
            "type": "FieldString",
            "name": "uf_conv"
        },
        "81": {
            "type": "FieldString",
            "name": "ultimo_log"
        },
        "82": {
            "type": "FieldString",
            "name": "unidade_ori"
        },
        "83": {
            "type": "FieldString",
            "name": "emp_cod"
        },
        "84": {
            "type": "FieldString",
            "name": "cnt_log_cod"
        },
        "85": {
            "type": "FieldString",
            "name": "sequencia_exame"
        },
        "86": {
            "type": "FieldString",
            "name": "cnt_log_cod_exame"
        },
        "87": {
            "type": "FieldString",
            "name": "centro_log_prod"
        },
        "88": {
            "type": "FieldString",
            "name": "id_item_dasa"
        },
        "89": {
            "type": "FieldString",
            "name": "item_cod"
        },
        "90": {
            "type": "FieldString",
            "name": "fatura_ori"
        },
        "91": {
            "type": "FieldString",
            "name": "cnt_log_ln_fat"
        },
        "92": {
            "type": "FieldString",
            "name": "nota_atdo"
        },
        "93": {
            "type": "FieldString",
            "name": "modalidade"
        },
        "94": {
            "type": "FieldString",
            "name": "desc_origem"
        },
        "95": {
            "type": "FieldString",
            "name": "ordem_midia"
        },
        "96": {
            "type": "FieldString",
            "name": "data_laudo"
        },
        "97": {
            "type": "FieldString",
            "name": "data_extracao"
        }

    }
}